<?xml version="1.0" encoding="utf-8"?>
<!-- Generator: Adobe Illustrator 19.0.0, SVG Export Plug-In . SVG Version: 6.00 Build 0)  -->
<svg version="1.1" id="Layer_1" xmlns="http://www.w3.org/2000/svg"  x="0px" y="0px"
	 viewBox="-49 141 512 512" style="enable-background:new -49 141 512 512;" xml:space="preserve">
<style type="text/css">
	.st0{fill:#66AE30;}
</style>
<g>
	<g id="XMLID_1_">
		<g>
			<path class="st0" d="M462.9,365.9v62.2c0,5.8-4.7,11.4-10.4,12.5l-61.6,11.6c-3.8,12.7-8.9,24.9-15.1,36.4l35.3,51.6
				c3.3,4.8,2.6,12.1-1.5,16.2l-44,44c-2.3,2.4-5.7,3.6-9.1,3.6c-2.5,0-5-0.7-7.1-2.1l-51.9-35.5c-11.5,6.1-23.7,11.1-36.4,14.8
				l-11.5,61.4c-1,5.7-6.6,10.4-12.5,10.4h-62.2c-5.8,0-11.4-4.7-12.5-10.4l-11.6-62c-12.2-3.8-23.9-8.6-34.9-14.6l-51.3,35.1
				c-2.1,1.4-4.6,2.1-7.1,2.1c-3.3,0-6.7-1.2-9.1-3.6l-44-44c-4.1-4.1-4.8-11.4-1.5-16.2L38,488.1c-6.1-11.3-11-23.4-14.8-36
				l-61.6-11.6c-5.7-1-10.4-6.6-10.4-12.5v-62.2c0-5.8,4.7-11.4,10.6-12.6l61.7-11.6c3.7-12.3,8.5-24.2,14.5-35.3L2.5,254.5
				c-3.3-4.8-2.6-12.1,1.5-16.2l44-44c2.3-2.4,5.7-3.6,9.1-3.6c2.5,0,5,0.7,7.1,2.1l51.5,35.3c11.1-6,23-10.9,35.3-14.7l11.6-62
				c1-5.7,6.6-10.4,12.5-10.4h62.2c5.9,0,11.5,4.7,12.3,10.5l11.5,61.4c12.9,3.7,25.2,8.8,36.8,15l52.2-35.7
				c2.1-1.4,4.6-2.1,7.1-2.1c3.3,0,6.7,1.2,9.1,3.6l44,44c4.1,4.1,4.8,11.4,1.5,16.2L376,306.1c6,11.3,11,23.2,14.7,35.7l61.7,11.6
				C458.1,354.4,462.9,360,462.9,365.9z M331.6,397c0-68.6-55.9-124.5-124.5-124.5S82.7,328.3,82.7,397s55.9,124.5,124.5,124.5
				S331.6,465.6,331.6,397z"/>
			<path class="st0" d="M207.1,272.5c68.6,0,124.5,55.9,124.5,124.5s-55.9,124.5-124.5,124.5S82.7,465.7,82.7,397
				S138.6,272.5,207.1,272.5z M309.6,397c0-56.5-46-102.5-102.5-102.5s-102.5,46-102.5,102.5s46,102.5,102.5,102.5
				S309.6,453.5,309.6,397z"/>
		</g>
		<g>
		</g>
	</g>
</g>
</svg>
