<?xml version="1.0" encoding="utf-8"?>
<!-- Generator: Adobe Illustrator 19.0.0, SVG Export Plug-In . SVG Version: 6.00 Build 0)  -->
<svg version="1.1" id="Layer_1" xmlns="http://www.w3.org/2000/svg" xmlns:xlink="http://www.w3.org/1999/xlink" x="0px" y="0px"
	 viewBox="-241 332 129 129" style="enable-background:new -241 332 129 129;" xml:space="preserve">
<style type="text/css">
	.st0{fill:#66AE30;}
</style>
<g>
	<g>
		<path class="st0" d="M-176.3,368.3c-28.4,0-55.9,27.1-57,28.3c-0.8,0.8-1.2,1.8-1.2,2.9s0.4,2.1,1.2,2.9
			c1.2,1.2,28.6,28.3,57,28.3s55.9-27.1,57-28.3c0.8-0.8,1.2-1.8,1.2-2.9c0-1.1-0.4-2.1-1.2-2.9
			C-120.4,395.4-147.8,368.3-176.3,368.3z M-176.3,422.4c-19.9,0-40.4-16.2-48.1-23c7.7-6.8,28.2-23,48.1-23s40.4,16.2,48.1,23
			C-135.9,406.2-156.4,422.4-176.3,422.4z"/>
		<path class="st0" d="M-191,399.4c0,8.1,6.6,14.8,14.8,14.8s14.8-6.6,14.8-14.8c0-8.2-6.6-14.8-14.8-14.8S-191,391.3-191,399.4z
			 M-169.7,399.4c0,3.6-2.9,6.6-6.6,6.6c-3.6,0-6.6-2.9-6.6-6.6c0-3.7,2.9-6.6,6.6-6.6C-172.7,392.9-169.7,395.8-169.7,399.4z"/>
	</g>
</g>
</svg>
