<?xml version="1.0" encoding="utf-8"?>
<!-- Generator: Adobe Illustrator 19.0.0, SVG Export Plug-In . SVG Version: 6.00 Build 0)  -->
<svg version="1.1" id="Layer_1" xmlns="http://www.w3.org/2000/svg"  x="0px" y="0px"
	 viewBox="0 0 697.5 59.5" style="enable-background:new 0 0 697.5 59.5;" xml:space="preserve">
<style type="text/css">
	.st0{fill:#FFFFFF;}
</style>
<path id="XMLID_15_" d="M697.5,0"/>
<polygon id="XMLID_1_" points="697.5,0 659.5,59.5 347.8,59.5 347.8,0 "/>
<path id="XMLID_17_" class="st0" d="M0,0"/>
<polygon id="XMLID_16_" points="0,0 37.9,59.5 348.8,59.5 348.8,0 "/>
</svg>
