<?xml version="1.0" encoding="utf-8"?>
<!-- Generator: Adobe Illustrator 19.0.0, SVG Export Plug-In . SVG Version: 6.00 Build 0)  -->
<svg version="1.1" id="Layer_1" xmlns="http://www.w3.org/2000/svg" xmlns:xlink="http://www.w3.org/1999/xlink" x="0px" y="0px"
	 viewBox="0 0 3281.6 491" style="enable-background:new 0 0 3281.6 491;" xml:space="preserve">
<style type="text/css">
	.st0{fill:#6FBE44;}
	.st1{clip-path:url(#SVGID_2_);fill:#6FBE44;}
</style>
<polygon class="st0" points="12.9,0 0,74.2 149.9,74.2 79.4,476 159.5,476 230,74.2 380,74.2 392.9,0 "/>
<g>
	<defs>
		<rect id="SVGID_1_" width="3281.6" height="491"/>
	</defs>
	<clipPath id="SVGID_2_">
		<use xlink:href="#SVGID_1_"  style="overflow:visible;"/>
	</clipPath>
	<path class="st1" d="M575.9,176c-24.5-23.8-59.3-36.8-97.9-36.8c-51,0-99,22.2-131.7,60.8c-29.5,34.8-46.5,82.6-46.5,131.2
		c0,47.7,16.7,87.2,48.3,114.1C377,470,416.5,483,462.3,483c34.6,0,70.3-7.2,95.6-19.2l4.6-2.2l15.4-85l-18.4,10.2
		c-10.7,5.9-49.1,25.2-93.4,25.2c-52.8,0-85.7-27.6-89.7-74.5h229l2-7.3c4.5-16.1,7.3-37.6,7.3-56.2
		C614.6,234.4,601.2,200.6,575.9,176 M386.9,272.7c16.3-39.9,48-62.5,88.5-62.5c40.2,0,64.7,23.3,66.1,62.5H386.9z"/>
	<path class="st1" d="M868.5,139.2c-32.5,0-65.6,11.3-98.7,33.5l4.9-26.6h-77.1L639.3,476h77l38.6-219.9c37.6-29.2,70.7-44,98.5-44
		c27.1,0,39.8,13.4,39.8,42.3c0,8.5-1.3,19.7-4.3,35.4L856,476h77l32.9-186.5c3.6-19.5,5.2-33,5.2-45.3c0-31.7-9.9-58.3-28.7-77.1
		C924.1,148.9,898.5,139.2,868.5,139.2"/>
	<path class="st1" d="M1241.4,139.2c-32.5,0-65.6,11.3-98.7,33.5l4.9-26.6h-77.1L1012.2,476h77l38.6-219.9
		c37.6-29.2,70.7-44,98.5-44c27.1,0,39.8,13.4,39.8,42.3c0,8.5-1.3,19.7-4.3,35.4L1228.8,476h77l32.9-186.5
		c3.6-19.5,5.2-33,5.2-45.3c0-31.7-9.9-58.3-28.7-77.1C1297,148.9,1271.4,139.2,1241.4,139.2"/>
	<polygon class="st1" points="1385,476 1462,476 1520.4,146.1 1443.4,146.1 	"/>
	<path class="st1" d="M1500.9,0c-13.9,0-27,5.3-36.8,14.9c-9.9,9.7-15.4,22.7-15.4,36.7c0,26.8,21,47.8,47.8,47.8
		c29.1,0,52.8-23.1,52.8-51.6C1549.3,21,1528.1,0,1500.9,0"/>
	<path class="st1" d="M1957.7,379.8c-14.2,0-27.8,5.5-38,15.6c-10.4,10.2-16.1,23.6-16.1,37.8c0,27.9,21.8,49.7,49.7,49.7
		c14.2,0,27.8-5.5,38-15.6c10.4-10.2,16.1-23.6,16.1-37.8C2007.4,401.6,1985.5,379.8,1957.7,379.8"/>
	<path class="st1" d="M2265.1,139.2c-48.2,0-92.5,16.3-128.1,47.2c-41.2,36-65.8,91.8-65.8,149.3c0,45.8,16.6,84,47.9,110.5
		c28,23.7,66.9,36.8,109.4,36.8c28.2,0,60.7-5.5,84.7-14.5l5.4-2l14.4-83.7l-17.7,8.8c-25.1,12.5-54.7,19.7-81.2,19.7
		c-54.1,0-86.4-29.9-86.4-80.1c0-34.2,15.2-69.5,39.6-92.1c20.3-18.5,46.5-28.3,75.8-28.3c24.1,0,47.8,6.5,76.8,21l12,6l13.1-75
		l-7-3.2C2329.9,146.7,2296,139.2,2265.1,139.2"/>
	<path class="st1" d="M2559.2,139.2c-49.1,0-94.4,19-127.5,53.5l0,0.1c-33.7,35.6-53.8,86.9-53.8,137.3c0,90.1,64.2,153,156.1,153
		c49.1,0,94.4-19,127.6-53.5c33.7-35.6,53.8-86.9,53.8-137.3C2715.3,202.1,2651.1,139.2,2559.2,139.2 M2638.7,296
		c0,32-12.5,65.1-32.6,86.4c-17.8,19-41.4,29-68.3,29c-50.6,0-83.2-33.4-83.2-85.1c0-32,12.5-65.1,32.6-86.4
		c17.8-19,41.4-29,68.3-29C2606,210.9,2638.7,244.3,2638.7,296"/>
	<path class="st1" d="M3253.1,166.4c-18.3-17.8-43.7-27.2-73.5-27.2c-39.1,0-79.6,16.7-120.8,49.8c-7-13.6-17.3-24.9-30.1-33.3
		c-16.4-10.8-36.8-16.4-58.9-16.4c-38.6,0-72.2,17.1-95.5,33.3l4.8-26.4h-77L2743.8,476h77l38.6-219c35.2-30.7,64.7-45,92.8-45
		c27.2,0,40.4,13,40.4,39.8c0,7.9-1.4,19.3-4.3,34.8L2954.8,476h77l33.6-189.7c2.1-12.1,3.5-21.5,4.2-29.1
		c34.3-30.4,64.9-45.2,93.7-45.2c27.2,0,40.4,13,40.4,39.8c0,7.9-1.4,19.3-4.3,34.8L3165.8,476h77l33.6-189.6
		c3.6-20.4,5.2-34.3,5.2-46.5C3281.6,209.9,3271.8,184.4,3253.1,166.4"/>
	<path class="st1" d="M1889.7,278l-0.1-0.3c-3.7-16.7-8.3-29-8.5-29.6l-0.2-0.4c-15.5-38.5-42.8-69.5-78.9-89.5
		c-41.3-23-89.3-28.4-135-15.4c-45.7,13.1-83.6,43-106.6,84.3c-23,41.3-28.4,89.3-15.4,135c13.1,45.7,43,83.6,84.3,106.6
		c26.3,14.6,55.9,22.3,85.7,22.3c16.6,0,33.1-2.3,49.3-7c45.7-13.1,83.6-43,106.6-84.3C1891.9,362.3,1898.4,320.2,1889.7,278
		 M1632.3,368.8c4.9-10.8,17.1-14.4,22.2-15.4c15-2.8,37,9.4,58.3,21.2c24.1,13.4,51,28.4,80.5,27.8c-12.9,11.5-28.2,20-45.1,25
		c-30.4,9-62.4,5.4-90.1-10c-9.9-5.5-17.3-11.1-22.6-17C1629,388.4,1628,378.3,1632.3,368.8 M1829.2,324
		c-5.9,10.5-17.5,17.6-34.5,20.9l-0.5,0.1c-11.7,2.7-32.4-8.8-52.4-19.9c-24.9-13.8-53.1-29.5-83.9-29.5c-4.5,0-8.9,0.3-13.2,1
		l-0.1,0c-7.6,1.3-29.3,6.3-47.4,23c-1.2-22.2,3.9-44.3,14.8-64c1.5-2.8,3.4-5.8,5.7-9.2c4.2,3.1,8.3,5.8,12.3,8
		c14.7,8.2,30.3,12.3,46.5,12.3h0c39,0,74.9-23.9,103.8-43.1l0.4-0.3c1.3-0.9,2.7-1.9,4-2.9c1-0.7,2-1.4,3-2.1
		c22.4,17.3,38,41.8,44.4,69.8C1835.2,302.9,1834.2,314.9,1829.2,324 M1663.5,207.1c17.3-8.7,36.7-13,56-12.3
		C1694.2,209.4,1678.1,213,1663.5,207.1"/>
</g>
</svg>
